{
  "$schema": "https://themost-framework.github.io/themost/models/2018/2/schema.json",
  "@id": "https://universis.io/schemas/StudyLevel",
  "name": "StudyLevel",
  "title": "Study levels e.g. undergraduate, postgraduate etc",
  "hidden": false,
  "sealed": false,
  "abstract": false,
  "caching": "conditional",
  "implements": "Enumeration",
  "category": "lookup",
  "version": "1.0",
  "fields": [
    {
      "name": "id",
      "title": "Id",
      "type": "Counter",
      "nullable": false,
      "primary": true
    },
    {
      "name": "locales",
      "type": "StudyLevelLocale",
      "mapping": {
        "associationType": "association",
        "cascade": "delete",
        "parentModel": "StudyLevel",
        "parentField": "id",
        "childModel": "StudyLevelLocale",
        "childField": "object"
      }
    },
    {
      "name": "locale",
      "type": "StudyLevelLocale",
      "readonly": true,
      "editable": false,
      "many": true,
      "expandable": true,
      "multiplicity": "ZeroOrOne",
      "mapping": {
        "associationType": "association",
        "cascade": "delete",
        "parentModel": "StudyLevel",
        "parentField": "id",
        "childModel": "StudyLevelLocale",
        "childField": "object",
        "options": {
          "$filter": "inLanguage eq lang()",
          "$first": true
        }
      }
    }
  ],
  "privileges": [
    {
      "mask": 1,
      "type": "global",
      "account": "*"
    },
    {
      "mask": 15,
      "type": "global"
    },
    {
      "mask": 15,
      "type": "global",
      "account": "Administrators"
    }
  ],
  "constraints": [
    {
      "type": "unique",
      "description": "Alternate name must be unique across different records",
      "fields": [
        "alternateName"
      ]
    },
    {
      "type": "unique",
      "description": "Name must be unique across different records",
      "fields": [
        "name"
      ]
    }
  ],
  "seed": [
    {
      "alternateName": "undergraduate",
      "name": "Προπτυχιακό",
      "identifier": 1,
      "locales": [
        {
          "name": "Undergraduate",
          "inLanguage": "en"
        },
        {
          "name": "Προπτυχιακό",
          "inLanguage": "el"
        }
      ]
    },
    {
      "alternateName": "postgraduate",
      "name": "Μεταπτυχιακό",
      "identifier": 2,
      "locales": [
        {
          "name": "Postgraduate",
          "inLanguage": "en"
        },
        {
          "name": "Μεταπτυχιακό",
          "inLanguage": "el"
        }
      ]
    },
    {
      "alternateName": "specialprogram",
      "name": "Άλλο",
      "identifier": 3
    },
    {
      "alternateName": "doctoral",
      "name": "Διδακτορικό",
      "identifier": 4,
      "locales": [
        {
          "name": "Doctoral",
          "inLanguage": "en"
        },
        {
          "name": "Διδακτορικό",
          "inLanguage": "el"
        }
      ]
    },
    {
      "alternateName": "postdoctoral",
      "name": "Μεταδιδακτορικό",
      "identifier": 5,
      "locales": [
        {
          "name": "Postdoctoral",
          "inLanguage": "en"
        },
        {
          "name": "Μεταδιδακτορικό",
          "inLanguage": "el"
        }
      ]
    }
  ],
  "eventListeners": [
    {
      "type": "./listeners/data-localization"
    }
  ]
}
