{
  "$schema": "https://themost-framework.github.io/themost/models/2018/2/schema.json",
  "@id": "https://universis.io/schemas/StudentRemoveAction",
  "name": "StudentRemoveAction",
  "title": "StudentRemoveAction",
  "hidden": false,
  "sealed": false,
  "version": "1.6",
  "inherits": "UpdateAction",
  "fields": [
    {
      "@id": "http://schema.org/object",
      "name": "object",
      "title": "Student",
      "description": "A student associated with registration action",
      "type": "Student",
      "nullable": false,
      "expandable": true,
      "editable": false,
      "value": "javascript:return this.student();"
    },
    {
      "@id": "http://schema.org/actionStatus",
      "name": "actionStatus",
      "title": "actionStatus",
      "description": "Indicates the current disposition of the Action.",
      "type": "ActionStatusType",
      "value": "javascript:return { alternateName:'ActiveActionStatus' };",
      "expandable": true
    },
    {
      "name": "removalDate",
      "title": "Ημερομηνία διαγραφής",
      "description": "Ημερομηνία διαγραφής",
      "type": "DateTime",
      "nullable": true
    },
    {
      "name": "removalPeriod",
      "title": "Περίοδος διαγραφής",
      "description": "Περίοδος διαγραφής",
      "type": "AcademicPeriod",
      "expandable": true
    },
    {
      "name": "removalYear",
      "title": "Ακαδημαϊκό έτος διαγραφής",
      "description": "Ακαδημαϊκό έτος διαγραφής",
      "type": "AcademicYear",
      "expandable": true
    },
    {
      "name": "removalRequest",
      "title": "Αίτητη διαγραφής",
      "description": "Αίτητη διαγραφής",
      "type": "Text",
      "nullable": true,
      "size": 30
    },
    {
      "name": "removalReason",
      "title": "Λόγος διαγραφής",
      "description": "Λόγος διαγραφής",
      "type": "Text",
      "nullable": true,
      "size": 70
    },
    {
      "name": "removalDecision",
      "title": "Αριθμός απόφασης διαγραφής",
      "description": "Αριθμός απόφασης διαγραφής",
      "type": "Text",
      "nullable": true,
      "size": 30
    },
    {
      "name": "removalDepartment",
      "title": "Τμήμα προορισμού",
      "description": "Τμήμα προορισμού",
      "type": "Text",
      "nullable": true,
      "size": 70
    },
    {
      "name": "removalNumber",
      "title": "Αριθμός διαγραφής",
      "description": "Αριθμός διαγραφής",
      "type": "Text",
      "nullable": true,
      "size": 20
    },
    {
      "name": "removalComments",
      "title": "Σχόλια διαγραφής",
      "description": "Σχόλια διαγραφής",
      "type": "Text",
      "nullable": true,
      "size": 1024
    }
  ],
  "eventListeners": [
    {
      "type": "@themost/data/previous-state-listener"
    },
    {
      "type": "./listeners/complete-student-remove-listener"
    },
    {
      "type": "./listeners/update-action-initiator-status-listener"
    }
  ],
  "privileges": [
    {
      "mask": 15,
      "type": "global"
    },
    {
      "mask": 15,
      "type": "global",
      "account": "Administrators",
      "description": "Administrators have full-access to all entities."
    },
    {
      "mask": 7,
      "type": "self",
      "account": "Registrar",
      "description": "A registrar user has access to read, write or update items which associated with students of its own departments.",
      "filter": "object/department eq departments()"
    },
    {
      "mask": 1,
      "type": "self",
      "account": "Students",
      "description": "A student has access to read items which associated with its record and their action status is other than active e.g. completed, cancelled etc",
      "filter": "object eq student() and actionStatus/alternateName ne 'ActiveActionStatus'"
    }
  ]
}
