{
  "spec_dir": "spec",
  "spec_files": [
    "**/*[sS]pec.js"
  ],
  "helpers": [
    "helpers/env.js",
    "helpers/module-alias.js",
    "helpers/babel.js",
    "helpers/reporter.js"
  ],
  "stopSpecOnExpectationFailure": false,
  "random": false
}
