{
  "name": "ApplicationUser",
  "id": 1085828,
  "title": "Application User",
  "hidden": true,
  "sealed": false,
  "version": "0.1",
  "source": "ApplicationUserBase",
  "view": "ApplicationUserBase",
  "fields": [
    {
      "name": "id",
      "title": "Id",
      "description": "Id",
      "type": "Text",
      "nullable": false,
      "size": 36,
      "primary":true,
      "readonly":true,
      "value":"javascript:return this.newGuid();"
    },
    {
      "name": "enabled",
      "title": "Enabled",
      "description": "Indicates whether a user is enabled or not.",
      "type": "Number",
      "nullable": false,
      "value": "javascript:return -1;"
    },
    {
      "name": "userId",
      "title": "Χρήστης",
      "description": "Ο συνδεδεμένος χρήστης",
      "type": "User",
      "nullable": false
    },
    {
      "name": "applicationId",
      "title": "",
      "description": "Application id",
      "type": "Text",
      "nullable": false,
      "size": 10
    },
    {
      "name": "roleId",
      "title": "",
      "description": "Role id",
      "type": "Text",
      "nullable": false,
      "size": 10
    },
    {
      "name": "dateModified",
      "title": "Ημερομηνία τελευταίας τροποποίησης",
      "description": "Ημερομηνία τελευταίας τροποποίησης",
      "type": "DateTime",
      "nullable": false,
      "value": "javascript:return new Date();",
      "calculation": "javascript:return this.now();",
      "readonly":true
    }

  ]
   ,
    "privileges":[
    { "mask":15, "type":"global" }
]
}
