{
    "$schema": "https://themost-framework.github.io/themost/models/2018/2/schema.json",
    "@id": "https://universis.io/CreateInstructorUserAction",
    "name": "CreateInstructorUserAction",
    "description": "The act of creating an instructor user.",
    "title": "CreateInstructorUserAction",
    "abstract": false,
    "sealed": false,
    "hidden": true,
    "inherits": "CreateUserAction",
    "version": "1.1",
    "fields": [
        {
            "name": "instructor",
            "title": "Διδάσκοντας",
            "description": "Ο διδάσκοντας για τον οποίο δημιουργείται ο λογαριασμός",
            "type": "Instructor",
            "nullable": false,
            "editable": false
        }
    ],
    "eventListeners": [
        {
            "type": "@themost/data/previous-state-listener"
        },
        {
            "type": "./listeners/after-save-create-instructor-user-listener"
        }
    ],
    "privileges": [
        {
            "mask": 15,
            "type": "global"
        },
        {
            "mask": 15,
            "type": "global",
            "account": "Administrators"
        }
    ]
}
