{
  "$schema": "https://themost-framework.github.io/themost/models/2018/2/schema.json",
  "@id": "https://universis.io/schemas/ProgramType",
  "name": "ProgramType",
  "title": "ProgramType",
  "hidden": false,
  "sealed": false,
  "abstract": false,
  "caching": "always",
  "implements": "Enumeration",
  "category": "lookup",
  "version": "1.0",
  "fields": [
    {
      "name": "id",
      "title": "Id",
      "type": "Counter",
      "nullable": false,
      "primary": true
    }
  ],
  "privileges": [
    {
      "mask": 1,
      "type": "global",
      "account": "*"
    },
    {
      "mask": 15,
      "type": "global"
    },
    {
      "mask": 15,
      "type": "global",
      "account": "Administrators"
    }
  ],
  "constraints": [
    {
      "type": "unique",
      "description": "Alternate name must be unique across different records",
      "fields": [
        "alternateName"
      ]
    },
    {
      "type": "unique",
      "description": "Name must be unique across different records",
      "fields": [
        "name"
      ]
    }
  ],
  "seed": [
    {
      "alternateName": "general",
      "name": "Γενικό",
      "description": "Ως γενικό ορίζεται το πρόγραμμα σπουδών του πρώτου έτους μιας σχολής, εφόσον ακολουθείται από ειδικά προγράμματα σπουδών"
    },
    {
      "alternateName": "special",
      "name": "Ειδικό",
      "description": "Ως ειδικό ορίζεται το πρόγραμμα σπουδών μετά το γενικό πρόγραμμα σπουδών μιας σχολής."
    },
    {
      "alternateName": "specialization",
      "name": "Ειδίκευση",
      "description": "Η ειδίκευση εφόσον το πρόγραμμα σπουδών ιεραρχείται με ειδικεύσεις"
    },
    {
      "alternateName": "orientation",
      "name": "Κατεύθυνση",
      "description": "Η κατεύθυνση εφόσον το πρόγραμμα σπουδών ιεραρχείται με κατευθύνσεις"
    },
    {
      "alternateName": "other",
      "name": "Άλλο",
      "description": "Άλλη κατηγορία"
    }
  ],
  "eventListeners": [
    {
      "name": "Lookup Cache Listener",
      "type": "./listeners/lookup-cache-listener.js"
    }
  ]
}
