{
  "$schema": "https://themost-framework.github.io/themost/models/2018/2/schema.json",
  "@id": "https://themost.io/schemas/StudentRequestAction",
  "name": "StudentRequestAction",
  "description": "The act of requesting something",
  "title": "StudentRequestAction",
  "abstract": false,
  "sealed": false,
  "inherits": "RequestAction",
  "version": "1.6",
  "fields": [
    {
      "name": "student",
      "title": "Student",
      "description": "Student",
      "type": "Student",
      "nullable": true,
      "value": "javascript:return this.student();",
      "editable": false
    },
    {
      "name": "messages",
      "title": "Messages",
      "description": "Action related messages",
      "type": "StudentMessage",
      "many": true,
      "mapping": {
        "parentModel": "StudentRequestAction",
        "childModel": "StudentMessage",
        "parentField": "id",
        "childField": "action",
        "cascade": "null",
        "associationType": "association"
      }
    },
    {
      "@id": "https://themost.io/schemas/attachments",
      "name": "attachments",
      "type": "Attachment",
      "mapping": {
        "cascade": "delete",
        "associationType": "junction",
        "associationObjectField": "object",
        "associationValueField": "value",
        "associationAdapter": "StudentRequestActionAttachments"
      }
    },
    {
      "@id": "http://schema.org/owner",
      "name": "owner",
      "title": "Owner",
      "description": "The owner of the action e.g. a user who request something.",
      "type": "User",
      "value": "javascript:return this.model.context.model('Student').where('id').equal(typeof this.target.student === 'object' ? this.target.student.id : this.target.student).select('user').silent().value();"
    }
  ],
  "privileges": [
    {
      "mask": 15,
      "type": "global"
    },
    {
      "mask": 15,
      "type": "global",
      "account": "Administrators"
    },
    {
      "mask": 1,
      "type": "self",
      "filter": "owner eq me() or student eq student()",
      "account": "Students"
    },
    {
      "mask": 2,
      "type": "self",
      "filter": "owner eq me() and student eq student()",
      "account": "Students"
    },
    {
      "mask": 15,
      "type": "self",
      "account": "Registrar",
      "filter": "student/department eq departments()"
    }
  ]
}
