{
  "$schema": "https://themost-framework.github.io/themost/models/2018/2/schema.json",
  "@id": "http://schema.org/StudentUploadAction",
  "name": "StudentUploadAction",
  "description": "The act of uploading a collection of students to import.",
  "title": "StudentUploadAction",
  "abstract": false,
  "sealed": false,
  "inherits": "UploadAction",
  "version": "1.0",
  "fields": [
    {
      "@id": "http://schema.org/object",
      "name": "object",
      "title": "object",
      "description": "The object upon which the action is carried out.",
      "type": "LocalDepartment"
    }
  ],
  "privileges": [
    {
      "mask": 15,
      "type": "global"
    },
    {
      "mask": 15,
      "type": "global",
      "account": "Administrators"
    },
    {
      "mask": 15,
      "type": "self",
      "account": "Registrar",
      "filter": "department eq departments()"
    }
  ]
}
