{
  "$schema": "https://themost-framework.github.io/themost/models/2018/2/schema.json",
  "@id": "https://universis.io/entities/StudyLevelLocale",
  "name": "StudyLevelLocale",
  "title": "StudyLevelLocale",
  "abstract": false,
  "contains": "StudyLevel",
  "hidden": true,
  "sealed": false,
  "version": "1.0",
  "fields": [
    {
      "@id": "https://themost.io/schemas/id",
      "name": "id",
      "title": "ID",
      "description": "The identifier of the item.",
      "type": "Counter",
      "primary": true,
      "nullable": false
    },
    {
      "@id": "https://themost.io/schemas/object",
      "name": "object",
      "title": "object",
      "description": "The parent item.",
      "type": "StudyLevel"
    },
    {
      "@id": "http://schema.org/inLanguage",
      "name": "inLanguage",
      "title": "inLanguage",
      "description": "The language of this item.",
      "type": "Text",
      "size": 5
    },
    {
      "@id": "http://schema.org/name",
      "name": "name",
      "title": "name",
      "description": "The name of the item.",
      "type": "Text"
    }
  ],
  "constraints": [
    {
      "type": "unique",
      "fields": [
        "object", "inLanguage"
      ]
    }
  ],
  "privileges": [
    {
      "mask": 1,
      "type": "global",
      "account": "*"
    },
    {
      "mask": 15,
      "type": "global"
    },
    {
      "mask": 15,
      "type": "global",
      "account": "Administrators"
    }
  ],
  "seed": [
    {
      "object": {
        "alternateName": "undergraduate"
      },
      "name": "Undergraduate",
      "inLanguage": "en"
    },
    {
      "object": {
        "alternateName": "undergraduate"
      },
      "name": "Προπτυχιακό",
      "inLanguage": "el"
    },
    {
      "object": {
        "alternateName": "postgraduate"
      },
      "name": "Postgraduate",
      "inLanguage": "en"
    },
    {
      "object": {
        "alternateName": "postgraduate"
      },
      "name": "Μεταπτυχιακό",
      "inLanguage": "el"
    },
    {
      "object": {
        "alternateName": "doctoral"
      },
      "name": "Doctoral",
      "inLanguage": "en"
    },
    {
      "object": {
        "alternateName": "doctoral"
      },
      "name": "Διδακτορικό",
      "inLanguage": "el"
    },
    {
      "object": {
        "alternateName": "postdoctoral"
      },
      "name": "Postdoctoral",
      "inLanguage": "en"
    },
    {
      "object": {
        "alternateName": "postdoctoral"
      },
      "name": "Μεταδιδακτορικό",
      "inLanguage": "el"
    }
  ]
}
