{
  "$schema": "https://themost-framework.github.io/themost/models/2018/2/schema.json",
  "@id": "https://universis.io/schemas/EducationEventAttendanceListType",
  "name": "TeachingEventAttendance",
  "description": "A model to track presence count of a student in an education event.",
  "title": "TeachingEventAttendance",
  "inherits": "EducationEventAttendance",
  "abstract": false,
  "sealed": false,
  "version": "0.2",
  "fields": [
    {
      "name": "event",
      "description": "The event which this attendance record is related to.",
      "title": "Event",
      "type": "TeachingEvent",
      "nullable": false,
      "editable": false
    },
    {
      "name": "studentCourseClass",
      "title": "Student course class",
      "type": "StudentCourseClass",
      "nullable": false,
      "editable": false
    },
    {
      "name": "coefficient",
      "description": "A number which presents the coefficient of a presence that is going to be used to calculate the attendance count in a courseClass",
      "title": "Coefficient",
      "type": "Integer",
      "value": "javascript:return this.target.event.eventAttendanceCoefficient;"
    }
  ],
  "privileges": [
    {
      "mask": 1,
      "type": "self",
      "account": "Students",
      "filter": "student eq student()"
    },
    {
      "mask": 1,
      "type": "self",
      "account": "Instructors",
      "filter": "event/courseClass/instructors/instructor eq instructor()"
    },
    {
      "mask": 10,
      "type": "self",
      "account": "Instructors",
      "filter": "event/courseClass/instructors/instructor eq instructor() and event/performer eq me()"
    },
    {
      "mask": 15,
      "type": "global"
    },
    {
      "mask": 15,
      "type": "global",
      "account": "Administrators"
    }
  ]
}
